WeightClassKg,Sex,Place,JapaneseName,Name,Team,BirthYear,BodyweightKg,Squat1Kg,Squat2Kg,Squat3Kg,Bench1Kg,Bench2Kg,Bench3Kg,Deadlift1Kg,Deadlift2Kg,Deadlift3Kg,Best3SquatKg,Best3BenchKg,Best3DeadliftKg,TotalKg,Event,Equipment,Division
43,F,1,浜田 華澄,,厚木商業高校,2000,42.2,80,88,-92.5,-40,40,45.5,90,-105.5,-105.5,88,45.5,90,223.5,SBD,Raw,Sub-Juniors
47,F,1,可児 遥,Haruka Kani,フェニックスジム,2001,46.95,95,102.5,110,52.5,57.5,-60,125,130,137.5,110,57.5,137.5,305,SBD,Raw,Juniors
47,F,1,可児 遥,Haruka Kani,フェニックスジム,2001,46.95,95,102.5,110,52.5,57.5,-60,125,130,137.5,110,57.5,137.5,305,SBD,Raw,Open
47,F,2,福村 彩,,個人,1986,46.75,90,95,100,60,65,70,110,120,132.5,100,70,132.5,302.5,SBD,Raw,Open
47,F,3,青木 千明,,名城修練会,1992,46.65,90,95,-100,50,55,60,110,120,-132.5,95,60,120,275,SBD,Raw,Open
47,F,4,笹尾 桃子,,スーパーパワーアサマ,1983,45.05,75,85,90,35,40,42.5,100,110,115,90,42.5,115,247.5,SBD,Raw,Open
47,F,5,西川 裕子,,個人,1960,45.9,70,75,-77.5,35,37.5,40,100,105,-107.5,75,40,105,220,SBD,Raw,Open
47,F,6,三木 真紀,,パワーハウス,1966,46.75,60,65,70,42.5,-45,45,75,80,85,70,45,85,200,SBD,Raw,Open
47,F,7,浦崎 真紀,,Team Advance,1981,46.65,55,60,-65,30,35,-37.5,80,90,-95,60,35,90,185,SBD,Raw,Open
52,F,1,可児 理恵,Rie Kani,フェニックスジム,1979,47.05,110,115,117.5,70,75,77.5,140,147.5,152.5,117.5,77.5,152.5,347.5,SBD,Raw,Open
52,F,2,早川 琴果,Kotomi Hayakawa,阪南大学ウェイト部,1995,48.85,90,100,102.5,60,65,67.5,135,-142.5,-142.5,102.5,67.5,135,305,SBD,Raw,Open
52,F,3,川端 友巳,,ゼウスジム,1979,50.25,-100,100,-105,60,65,-67.5,130,135,-140,100,65,135,300,SBD,Raw,Open
52,F,4,木村 初子,Hatsuko Kimura,スーパーパワーアサマ,1951,51.25,80,-90,95,40,45,50,130,140,-145,95,50,140,285,SBD,Raw,Open
52,F,1,菊地 雅,Miyabi Kikuchi,TXP,1998,50.45,85,92.5,97.5,60,65,-70.5,115,120,-125,97.5,65,120,282.5,SBD,Raw,Juniors
52,F,5,田中 亜弥,,TXP,1987,51.75,85,92.5,-97.5,40,45,50,110,120,130,92.5,50,130,272.5,SBD,Raw,Open
52,F,2,荻野 智子,,ESOATIR,1997,49.55,80,90,97.5,60,65,-67.5,95,107.5,-115,97.5,65,107.5,270,SBD,Raw,Juniors
52,F,6,荻野 智子,,ESOATIR,1997,49.55,80,90,97.5,60,65,-67.5,95,107.5,-115,97.5,65,107.5,270,SBD,Raw,Open
52,F,7,磯田 あかね,,スーパーパワーアサマ,1970,51.2,80,87.5,92.5,50,55,57.5,107.5,115,117.5,92.5,57.5,117.5,267.5,SBD,Raw,Open
52,F,1,田ヶ谷 花恋,,東京成徳大学深谷高校,2001,51.05,75,95,105,45,50,-52.5,100,110,-117.5,105,50,110,265,SBD,Raw,Sub-Juniors
52,F,8,東 里映,,ゼウスジム,1976,51.5,85,90,-92.5,30,35,37.5,107.5,115,117.5,90,37.5,117.5,245,SBD,Raw,Open
52,F,9,糸井 千都香,,TXP,1972,51.35,80,85,-87.5,45,50,-52.5,90,95,100,85,50,100,235,SBD,Raw,Open
52,F,10,坂井 真奈,,B・A・D,1989,49,70,72.5,-75,45,47.5,50,110,-120,-120,72.5,50,110,232.5,SBD,Raw,Open
52,F,3,植村 茉由,,青山学院大学,1997,48.2,60,70,75,37.5,42.5,45,75,90,95,75,45,95,215,SBD,Raw,Juniors
52,F,11,仲村 晴香,,Team Advance,1984,51.15,75,-82.5,-82.5,37.5,40,-42.5,75,80,-87.5,75,40,80,195,SBD,Raw,Open
57,F,1,大西 翔子,Shoko Onishi,京都府立北桑田高等学校,1999,54.7,140,150,-160,60,-65,-65,140,150.5,-155,150,60,150.5,360.5,SBD,Raw,Juniors
57,F,1,中井 美貴子,,個人,1990,57,100,107.5,-112.5,65,67.5,70,130,140,142.5,107.5,70,142.5,320,SBD,Raw,Open
57,F,2,中野 栞,,ノーリミッツ,1991,56.05,105,112.5,-117.5,62.5,67.5,70,120,125,135,112.5,70,135,317.5,SBD,Raw,Open
57,F,3,赤川 智子,Tomoko Akagawa,スーパーパワーアサマ,1984,56.15,95,105,110,70,75,77.5,120,130,-140,110,77.5,130,317.5,SBD,Raw,Open
57,F,4,上林 理紗子,,ノーリミッツ,1989,55.8,95,105,107.5,50,-55,-55,125,132.5,-142.5,107.5,50,132.5,290,SBD,Raw,Open
57,F,5,菅生 桃子,,京都P/Lクラブ,1990,56.25,85,95,-105,50,57.5,-62.5,120,130,-140,95,57.5,130,282.5,SBD,Raw,Open
57,F,6,寺村 美香,Mika Teramura,江別P/L協会,1962,53.3,70,80,85,55,60,62.5,100,122.5,-125,85,62.5,122.5,270,SBD,Raw,Open
57,F,7,坪井 美樹,,TEAM KASHIWAFITNESS,1983,54.65,85,90,92.5,50,52.5,55,100,105,112.5,92.5,55,112.5,260,SBD,Raw,Open
57,F,8,長江 由美子,,個人,1974,57,80,92.5,95,50,55,57.5,85,95,-100,95,57.5,95,247.5,SBD,Raw,Open
57,F,2,浦野 萌々,,ノーリミッツ,1998,55.95,80,85,90,45,47.5,50,100,105,-110,90,50,105,245,SBD,Raw,Juniors
57,F,9,軽部 あゆみ,,個人,1985,56.85,72.5,-80,-80,42.5,45,-47.5,115,-127.5,127.5,72.5,45,127.5,245,SBD,Raw,Open
57,F,10,平川 美由紀,,Team Advance,1973,55.55,80,-90,-90,40,-42.5,42.5,110,120,-125,80,42.5,120,242.5,SBD,Raw,Open
57,F,11,長尾 和美,,ゼウスジム,1977,56.75,-80,80,85,45,47.5,-50,-100,100,-105,85,47.5,100,232.5,SBD,Raw,Open
57,F,1,逸見 侑依,,東京成徳大学深谷高校,2001,56.4,75,-90,-90,40,45,-50,100,110,-125,75,45,110,230,SBD,Raw,Sub-Juniors
57,F,DQ,本多 まゆみ,,個人,1984,55.7,90,-95,-95,-50,-52.5,-52.5,125,-130,-135,90,,125,,SBD,Raw,Open
57,F,NS,田中 彰子,,パワーハウス赤穂,1964,,,,,,,,,,,,,,,SBD,Raw,Open
63,F,1,北村 真由美,Mayumi Kitamura,スーパーパワーアサマ,1967,62.55,137.5,150,152.5,97.5,102.5,-106,155,167.5,-177.5,152.5,102.5,167.5,422.5,SBD,Raw,Open
63,F,1,堤 彩夏,Ayaka Tsutsumi,京都学園大学,1995,62.5,135,142.5,-147.5,72.5,77.5,80,155,167.5,-173.5,142.5,80,167.5,390,SBD,Raw,Juniors
63,F,2,堤 彩夏,Ayaka Tsutsumi,京都学園大学,1995,62.5,135,142.5,-147.5,72.5,77.5,80,155,167.5,-173.5,142.5,80,167.5,390,SBD,Raw,Open
63,F,1,野村 優,Yu Nomura,京都府立農芸高校,2000,62,120,-135,135,70,77.5,-82.5,155,167.5,-175,135,77.5,167.5,380,SBD,Raw,Sub-Juniors
63,F,3,鈴木 恭子,,スーパーパワーアサマ,1977,62.6,115,125,-135,-60,60,65,130,140,150,125,65,150,340,SBD,Raw,Open
63,F,4,林 久子,Hisako Hayashi,雷神ファクトリー,1951,62.1,90,105,-110,65,67.5,70,120,125,-130,105,70,125,300,SBD,Raw,Open
63,F,5,小野 瑞季,,ノーリミッツ,1993,62.4,100,107.5,110,-45,45,-50,125,135,140,110,45,140,295,SBD,Raw,Open
63,F,2,野口 莉奈,,東京成徳大学深谷高校,2001,60.25,100,-110,-110,50,55,60,105,115,125,100,60,125,285,SBD,Raw,Sub-Juniors
63,F,6,矢田 和砂,,ゼウスジム,1973,61.3,-100,100,105,50,-52.5,52.5,115,120,125,105,52.5,125,282.5,SBD,Raw,Open
63,F,2,来栖 彩,,青山学院大学,1998,59.85,90,100,112.5,45,50,-57.5,100,110,117.5,112.5,50,117.5,280,SBD,Raw,Juniors
63,F,7,鉢嶺 和佳奈,,Team Advance,1985,62.3,-80,80,92.5,40,-45,45,-105,-115,120,92.5,45,120,257.5,SBD,Raw,Open
63,F,8,岩井 知子,,チームレスキュー,1975,59.65,70,75,80,-50,50,55,90,100,105,80,55,105,240,SBD,Raw,Open
63,F,NS,芦川 聖子,,TXP,1974,,,,,,,,,,,,,,,SBD,Raw,Open
72,F,1,岡田 有加,Yuka Okada,TXP,1992,70.45,135,140,-142.5,75,82.5,-87.5,170,177.5,186,140,82.5,186,408.5,SBD,Raw,Open
72,F,2,竹内 あい,Ai Takeuchi,個人,1989,68.6,155,-166,-166,80,82.5,-85,130,140,145,155,82.5,145,382.5,SBD,Raw,Open
72,F,3,前野 由衣,Yui Maeno,スーパーパワーアサマ,1989,68.2,112.5,122.5,125,70,-75,75,140,150,-160,125,75,150,350,SBD,Raw,Open
72,F,4,照屋 利恵,Rie Teruya,POWERSPOT,1975,69.8,110,120,122.5,75,80,-85,125,135,137.5,122.5,80,137.5,340,SBD,Raw,Open
72,F,5,マッカーシー ビアンカ,Bianca McCarthy,ESQATIR,1988,66.45,110,-117.5,-117.5,65,70,-75,140,150,152.5,110,70,152.5,332.5,SBD,Raw,Open
72,F,6,金子 睦,,TXP,1986,70.6,122.5,132.5,-140,65,70,-75,120,130,-137.5,132.5,70,130,332.5,SBD,Raw,Open
72,F,1,池田 光咲,,神奈川大学,1999,70.1,105,115,-120,65,-75,75,120,135,-145,115,75,135,325,SBD,Raw,Juniors
72,F,7,鷲頭 智子,,個人,1978,69.55,110,-115,-120,-60,60,-62.5,120,125,130,110,60,130,300,SBD,Raw,Open
72,F,1,松本 葵,,京都府立農芸高校,2001,70.45,70,85,92.5,47.5,52.5,-57.5,100,-115,117.5,92.5,52.5,117.5,262.5,SBD,Raw,Sub-Juniors
72,F,2,バウム 百桃,,常総学院高校,2000,63.1,85,90,-97.5,42.5,47.5,-50,105,117.5,122.5,90,47.5,122.5,260,SBD,Raw,Sub-Juniors
84,F,1,梅村 優子,,ちからこぶ,1974,80.45,-160,160,-167,65,70,75,145,152.5,160,160,75,160,395,SBD,Raw,Open
84,F,1,オヌ 花,,常総学院高校,2000,82.35,115,-125,-135,60,65,-72.5,145,155,-170,115,65,155,335,SBD,Raw,Sub-Juniors
84,F,2,篠崎 純子,,ESOATIR,1967,73.9,-100,-100,100,-57.5,57.5,60,110,120,125,100,60,125,285,SBD,Raw,Open
84,F,3,後藤 啓恵,,リアルスイング,1966,76.1,90,100,105,45,50,55,110,115,117.5,105,55,117.5,277.5,SBD,Raw,Open
84,F,4,中村 理歩,,個人,1994,72.7,92.5,100,105,50,57.5,60,100,110,-117.5,105,60,110,275,SBD,Raw,Open
53,M,1,山田 真哉,Masaya Yamada,浦和学院高等学校,2001,52.75,125,-135,135,103,107.5,-112.5,186,195,-205,135,107.5,195,437.5,SBD,Raw,Sub-Juniors
53,M,2,岡田 和磨,,岡崎城西高等学校,2001,51.85,100,110,-120,65,-70,70,140,-160,-160,110,70,140,320,SBD,Raw,Sub-Juniors
59,M,1,佐竹 優典,Yusuke Satake,青山学院大学,1996,58.9,190,197.5,-202.5,120,127.5,132.5,225,237.5,247.5,197.5,132.5,247.5,577.5,SBD,Raw,Open
59,M,2,蛯原 孝晴,Takaharu Ebihara,個人,1980,58.65,190,-200,-205,130,137.5,140,210,225,-237.5,190,140,225,555,SBD,Raw,Open
59,M,3,久保 元人,Motohito Kubo,Ks GYM,1989,58.8,155,165,172.5,105,112.5,115,220,236.5,-248,172.5,115,236.5,524,SBD,Raw,Open
59,M,1,松崎 涼,,浦和学院高等学校,1999,58.08,160,170,-180,90,-95,100,200,210,220,170,100,220,490,SBD,Raw,Juniors
59,M,4,松崎 涼,,浦和学院高等学校,1999,58.08,160,170,-180,90,-95,100,200,210,220,170,100,220,490,SBD,Raw,Open
59,M,5,竹花 真人,Masato Takehana,パワーハウス,1988,58.9,150,162.5,170,115,120,-125,170,180,192.5,170,120,192.5,482.5,SBD,Raw,Open
59,M,6,溝尾 元洋,,個人,1980,58.1,140,-147.5,-147.5,120,125,-130,160,167.5,172.5,140,125,172.5,437.5,SBD,Raw,Open
59,M,1,土屋 潤人,,岡崎城西高等学校,2000,56.4,150,-165.5,-165.5,100,105,-113.5,160,170,180,150,105,180,435,SBD,Raw,Sub-Juniors
59,M,7,向井 陽紀,,個人,1987,58.9,150,-160,-160,-102.5,-105,105,175,-180,-180,150,105,175,430,SBD,Raw,Open
59,M,2,濱砂 水喜,,春日部共栄高等学校,2000,57.35,135,145,-155,105,-110,-110,165,175,-187.5,145,105,175,425,SBD,Raw,Sub-Juniors
59,M,2,須田 幸哉,,青山学院大学,1996,57.75,130,140,150,80,90,95,160,170,-182.5,150,95,170,415,SBD,Raw,Juniors
59,M,8,根本 拓磨,,パワーハルクジム,1989,58.3,110,-120,120,95,-100,-100,165,175,-182.5,120,95,175,390,SBD,Raw,Open
59,M,9,金城 幸雄,,POWERSPORT,1954,58.2,110,120,122.5,-90,90,-95,160,170,-180,122.5,90,170,382.5,SBD,Raw,Open
59,M,3,原田 晃希,,ちからこぶ,1999,57.75,130,135,140,70,75,-80,145,157.5,-162.5,140,75,157.5,372.5,SBD,Raw,Juniors
59,M,3,山崎 悠生,,京都府立農芸高校,2000,58.55,120,-130,-130,90,-95,-95,160,-180,-202.5,120,90,160,370,SBD,Raw,Sub-Juniors
59,M,4,山本 佳諒,,拳上集団,1995,56.95,100,120,125,-80,80,90,70,-145,145,125,90,145,360,SBD,Raw,Juniors
59,M,4,西田 剛,,ちからこぶ,2001,58.15,120,132.5,-140,60,-65,-65,-140,140,155,132.5,60,155,347.5,SBD,Raw,Sub-Juniors
59,M,5,井ノ本 航介,,東北大学BB,1996,58,110,-117.5,120,55,60,62.5,150,-160,-160,120,62.5,150,332.5,SBD,Raw,Juniors
59,M,DQ,水谷 綾介,,東奥義塾高等学校,2001,56,120,130,-140,80,82.5,-85,-150,-152.5,-152.5,130,82.5,,,SBD,Raw,Open
59,M,DQ,渡辺 雄介,,ATCフィットネス,1988,58.8,-120,-120,120,120,-130,-130,-180,-180,-180,120,120,,,SBD,Raw,Open
66,M,1,井上 雄介,Yusuke Inoue,雷神ファクトリー,1981,65.7,205,215,222.5,160,167.5,-172.5,245,255,260,222.5,167.5,260,650,SBD,Raw,Open
66,M,1,木内 陽介,Yosuke Kiuchi,青山学院大学,1996,65.95,200,210,220,125,135,142.5,255,265,273,220,142.5,273,635.5,SBD,Raw,Juniors
66,M,2,木内 陽介,Yosuke Kiuchi,青山学院大学,1996,65.95,200,210,220,125,135,142.5,255,265,273,220,142.5,273,635.5,SBD,Raw,Open
66,M,3,池上 宏樹,Hiroki Ikegami,TXP,1991,65.95,205,215,222.5,140,145,147.5,252.5,-263,265,222.5,147.5,265,635,SBD,Raw,Open
66,M,2,東 真彦,,慶應義塾大学,1995,65.95,180,190,195,-140,140,-150,-200,200,210,195,140,210,545,SBD,Raw,Juniors
66,M,4,山本 英立,,元気クラブ,1980,65.7,170,177.5,180,110,-117.5,117.5,235,-245,245,180,117.5,245,542.5,SBD,Raw,Open
66,M,5,豊田 純也,,スポーツジム平良,1985,65.85,175,185,190,110,115,117.5,210,220,235,190,117.5,235,542.5,SBD,Raw,Open
66,M,6,上田 孝道,,スパインハウス,1993,65.5,180,-190,-190,120,125,130,-230,230,-240,180,130,230,540,SBD,Raw,Open
66,M,7,伊東 優太,,リアルスイング,1984,65.3,175,185,192.5,105,-110,,225,235,-240,192.5,105,235,532.5,SBD,Raw,Open
66,M,8,瑞慶覧 勇輝,,POWERSPORT,1988,65.95,170,180,185,122.5,130,137.5,200,210,-220,185,137.5,210,532.5,SBD,Raw,Open
66,M,3,池口 大夢,,個人,1995,65.65,160,170,180,80,90,97.5,230,250,-273.5,180,97.5,250,527.5,SBD,Raw,Juniors
66,M,9,三河 涼,Ryo Mikawa,スーパーパワーアサマ,1986,65,175,190,-200,100,105,112.5,200,210,217.5,190,112.5,217.5,520,SBD,Raw,Open
66,M,10,西村 直也,,雷神ファクトリー,1982,66,182.5,-192.5,-192.5,120,-125,-125,200,210,217.5,182.5,120,217.5,520,SBD,Raw,Open
66,M,11,小林 一貴,,TXP,1982,65.3,135,145,155,120,130,-132.5,200,215,-225,155,130,215,500,SBD,Raw,Open
66,M,12,井坂 彰良,,パワーハルクジム,1982,65.5,155,160,162.5,115,120,125,185,195,200,162.5,125,200,487.5,SBD,Raw,Open
66,M,13,東 和宏,,個人,1984,65.4,150,160,-170,95,100,105,205,-220,-220,160,105,205,470,SBD,Raw,Open
66,M,4,中島 圭樹,,個人,1996,65.9,155,-162.5,-167.5,100,105,-107.5,190,200,210,155,105,210,470,SBD,Raw,Juniors
66,M,5,館林 武,,ちからこぶ,1997,65.4,152.5,160,162.5,100,105,-107.5,190,-200,200,162.5,105,200,467.5,SBD,Raw,Juniors
66,M,14,吉原 健太,,ノーリミッツ,1979,65.4,150,160,-165,102.5,105,107.5,180,187.5,192.5,160,107.5,192.5,460,SBD,Raw,Open
66,M,15,倉光 貴史,,個人,1989,65.3,135,-145,-145,110,117.5,120,170,187.5,200,135,120,200,455,SBD,Raw,Open
66,M,6,大串 憲信,,ゴールドジム名古屋,1998,65.7,155,-160,160,92.5,-97.5,-97.5,185,200,202.5,160,92.5,202.5,455,SBD,Raw,Juniors
66,M,7,安田 尚記,,北海学園大学,1995,65.95,160,165,-172.5,85,-90,90,180,200,-215,165,90,200,455,SBD,Raw,Juniors
66,M,16,佐々木 良都,,個人,1994,66,145,-160,160,90,-95,-95,190,205,-212.5,160,90,205,455,SBD,Raw,Open
66,M,17,荒木 雄介,,Team Raws,1982,65.2,140,155,162.5,-100,105,112.5,175,-195,-202.5,162.5,112.5,175,450,SBD,Raw,Open
66,M,18,三樹 範大,,個人,1982,65.65,152.5,160,-162.5,80,85,-87.5,190,-200,202.5,160,85,202.5,447.5,SBD,Raw,Open
66,M,8,仲間 大河,,那覇ジム,1998,64.5,150,165,-170,100,-112.5,-115,170,180,-190,165,100,180,445,SBD,Raw,Juniors
66,M,1,村瀬 伸平,,浦和学院高等学校,2000,64.85,145,155,160,95,-100,-100,175,185,190,160,95,190,445,SBD,Raw,Sub-Juniors
66,M,19,藤田 朋晴,,ESQATIR,1973,65.45,150,155,160,80,90,105,170,175,180,160,105,180,445,SBD,Raw,Open
66,M,2,寺内 愼,,岡崎城西高等学校,2000,65.7,150,165,172.5,-90,90,-97.5,160,180,-187.5,172.5,90,180,442.5,SBD,Raw,Sub-Juniors
66,M,20,井中 宏史,,ちからこぶ,1957,65.85,135,-147.5,147.5,100,110,112.5,170,180,-185,147.5,112.5,180,440,SBD,Raw,Open
66,M,9,矢崎 尚悟,,慶應義塾大学,1996,65.45,150,160,167.5,-100,100,-105,160,170,-185,167.5,100,170,437.5,SBD,Raw,Juniors
66,M,10,高尾 優斗,,個人,1996,65.8,135,145,-155,90,95,-97.5,175,185,195,145,95,195,435,SBD,Raw,Juniors
66,M,21,伊藤 良一,,仙台市体育館P・C,1954,65.4,145,155,-160,-90,95,100,170,-180,-180,155,100,170,425,SBD,Raw,Open
66,M,22,加藤 孝基,,個人,1997,65.55,145,-160,-160,90,92.5,102.5,150,170,-180,145,102.5,170,417.5,SBD,Raw,Open
66,M,11,内野 力仁,,個人,1999,65.05,135,145,-150,90,-95,-95,155,165,170,145,90,170,405,SBD,Raw,Juniors
66,M,3,苅谷 賢展,,ちからこぶ,2002,64.15,135,142.5,-147.5,70,80,-85,-170,170,177.5,142.5,80,177.5,400,SBD,Raw,Sub-Juniors
66,M,12,石井 宏和,,東北大学BB,1997,64.7,130,-140,140,-80,80,-85,160,170,-180,140,80,170,390,SBD,Raw,Juniors
66,M,13,齋藤 駿弥,,北海学園大学,1998,61.55,110,120,-135,90,95,-100,150,160,-175,120,95,160,375,SBD,Raw,Juniors
66,M,14,ファルキ アブドゥルアズィーズ,Aziz Farooqi,青山学院大学,1998,59.55,135,150,-155,85,-95,-95,-135,-135,135,150,85,135,370,SBD,Raw,Juniors
66,M,4,岸本 琉一,,京都府立農芸高校,2000,65.75,130,-140,-140,75,-80,-80,155,-170,-170,130,75,155,360,SBD,Raw,Sub-Juniors
66,M,5,小西 健心,,パワーハウス,2003,60.2,105,110,115,60,65,-70,130,140,145,115,65,145,325,SBD,Raw,Sub-Juniors
66,M,DQ,岡本 翔太,,BLACKSHIP,1998,65.3,130,-140,-140,-85,-85,-85,-160,-170,-170,130,,,,SBD,Raw,Juniors
66,M,DQ,田端 昌之,,BLACK SHIP,1993,65.45,190,-200,200,-120,-120,-120,200,-210,-210,200,,200,,SBD,Raw,Open
66,M,DQ,山本 翔,,GINOWAN GYM,1996,65.65,-170,-172.5,-172.5,95,100,-110,205,-212.5,-212.5,,100,205,,SBD,Raw,Open
74,M,1,比嘉 善浩,Yoshihiro Higa,POWERSPORT,1991,73.7,252.5,272.5,-280,147.5,152.5,157.5,275,292.5,-305,272.5,157.5,292.5,722.5,SBD,Raw,Open
74,M,2,宇都木 悠,,TXP,1994,73.85,205,220,235,140,150,-157.5,240,260,-270,235,150,260,645,SBD,Raw,Open
74,M,3,渋谷 優輝,Yuuki Shibuya,TEAM KASHIWA FITNESS,1985,73.9,240,245,-250,150,155,160,220,230,-240,245,160,230,635,SBD,Raw,Open
74,M,4,原田 潤,,リアルスイング,1988,73.4,185,200,207.5,147.5,155,160,252.5,-257.5,-257.5,207.5,160,252.5,620,SBD,Raw,Open
74,M,1,福田 忠浩,,マッスルプロダクション,1996,73.55,200,210,-215,-152.5,152.5,160,235,242.5,250,210,160,250,620,SBD,Raw,Juniors
74,M,5,仲村 龍治,,個人,1981,73.85,195,210,215,160,-165,165,215,230,-240,215,165,230,610,SBD,Raw,Open
74,M,6,合田 隆宏,,Team Advance,1984,73.3,200,210,-215,130,-135,-135,250,260,-270,210,130,260,600,SBD,Raw,Open
74,M,2,江川 昂汰,,京都学園大学,1996,72.85,215,225,230,115,120,-125,230,-240,240,230,120,240,590,SBD,Raw,Juniors
74,M,7,山本 佳明,,TXP,1992,73.45,180,190,200,120,130,-140,235,250,260,200,130,260,590,SBD,Raw,Open
74,M,3,矢木 龍馬,,POWERSPORT,1997,73.85,215,-230,230,135,140,-142.5,-220,220,-230,230,140,220,590,SBD,Raw,Juniors
74,M,4,大石 航平,,東京農業大学,1997,73.65,210,220,-230,120,127.5,-135,220,235,-250,220,127.5,235,582.5,SBD,Raw,Juniors
74,M,5,佐藤 亮太,,ノーリミッツ,1996,73.75,200,-210,-210,132.5,142.5,147.5,225,235,-242.5,200,147.5,235,582.5,SBD,Raw,Juniors
74,M,8,佐藤 亮太,,ノーリミッツ,1996,73.75,200,-210,-210,132.5,142.5,147.5,225,235,-242.5,200,147.5,235,582.5,SBD,Raw,Open
74,M,9,島津 佳幸,,十勝P/L協会,1982,73.2,200,210,-215,130,137.5,-142.5,230,-240,-240,210,137.5,230,577.5,SBD,Raw,Open
74,M,6,長野 友紀,,個人,1997,73.7,190,202.5,210,130,-137.5,-142.5,225,235,-242.5,210,130,235,575,SBD,Raw,Juniors
74,M,10,柳田 雅彦,,湘南BP,1994,72,190,205,207.5,125,135,-140,215,-227.5,230,207.5,135,230,572.5,SBD,Raw,Open
74,M,11,山本 航平,,個人,1991,73.95,185,195,-205,140,147.5,-150,230,-245,-245,195,147.5,230,572.5,SBD,Raw,Open
74,M,12,野田 貴寛,,プレスタ,1972,72.85,200,210,-217.5,120,-125,-125,240,-250,-250,210,120,240,570,SBD,Raw,Open
74,M,13,日比野 智之,,東名アスレチック,1984,73.4,180,-185,-185,120,127.5,-130,250,260,-262.5,180,127.5,260,567.5,SBD,Raw,Open
74,M,14,鍋倉 光,,スーパーパワーアサマ,1989,73.8,160,180,190,125,132.5,140,225,237.5,-250,190,140,237.5,567.5,SBD,Raw,Open
74,M,15,内田 翔太朗,,ESQATIR,1989,72.05,190,200,205,125,127.5,130,215,220,225,205,130,225,560,SBD,Raw,Open
74,M,7,井上 悠成,,個人,1996,73.65,200,207.5,215,100,110,-115,220,230,-242.5,215,110,230,555,SBD,Raw,Juniors
74,M,8,三永 隼人,,パワーハウス赤穂,1996,69.55,165,180,192.5,125,-135,-135,230,-240,-240,192.5,125,230,547.5,SBD,Raw,Juniors
74,M,9,谷澤 直紀,,TXP,1995,73.1,185,-195,-195,127.5,135,140,210,220,-230,185,140,220,545,SBD,Raw,Juniors
74,M,10,石川 裕士,Hiroshi Ishikawa,青山学院大学,1997,73.7,170,180,-185,130,140,-145,215,225,-242.5,180,140,225,545,SBD,Raw,Juniors
74,M,16,石川 直也,,GINOWAN GYM,1974,74,175,185,-190,115,122.5,127.5,215,222.5,227.5,185,127.5,227.5,540,SBD,Raw,Open
74,M,17,久保田 甲斐,,個人,1991,73.35,170,180,190,115,122.5,127.5,-210,220,-232.5,190,127.5,220,537.5,SBD,Raw,Open
74,M,11,村上 翔太,Shota Murakami,東洋大学,1998,73.9,170,180,185,110,120,-122.5,210,225,230,185,120,230,535,SBD,Raw,Juniors
74,M,12,野澤 健人,,ESQUATIA,1997,73.9,190,-197.5,197.5,100,107.5,-110,220,227.5,-240,197.5,107.5,227.5,532.5,SBD,Raw,Juniors
74,M,13,田中 啓介,,青山学院大学,1998,73.1,170,-182.5,182.5,115,125,-130,210,220,-227.5,182.5,125,220,527.5,SBD,Raw,Juniors
74,M,18,峯 彰宏,,加須トレーニングジム,1994,73.6,-175,175,182.5,115,-122.5,-122.5,-215,215,-235,182.5,115,215,512.5,SBD,Raw,Open
74,M,19,本多 博一,,個人,1971,72.4,170,175,177.5,100,107.5,110,200,212.5,217.5,177.5,110,217.5,505,SBD,Raw,Open
74,M,14,石嶺 翔,,BLACKSHIP,1997,73.75,170,180,-190,-125,125,135,170,185,-200,180,135,185,500,SBD,Raw,Juniors
74,M,20,草間 伸司,,ESQATIR,1987,73.5,145,155,160,120,125,-130,185,195,-200,160,125,195,480,SBD,Raw,Open
74,M,15,大竹 優輝,,個人,1998,73.05,152.5,165,170,100,105,107.5,180,192.5,200,170,107.5,200,477.5,SBD,Raw,Juniors
74,M,21,白川 雄太,,キムンカムイ旭川,1992,71.45,165,-175,-180,110,115,120,190,-210,,165,120,190,475,SBD,Raw,Open
74,M,22,石川 和裕,,Ks GYM横浜,1985,73.35,165,-175,175,110,117.5,120,170,180,-205,175,120,180,475,SBD,Raw,Open
74,M,16,益子 直己,,作新学院高校,1999,72.6,160,177.5,-185,110,-117.5,-117.5,170,185,-200,177.5,110,185,472.5,SBD,Raw,Juniors
74,M,23,西城 明彦,,個人,1992,70.4,-162.5,165,172.5,90,-100,-100,200,-215,-220,172.5,90,200,462.5,SBD,Raw,Open
74,M,1,石川 育夢,,浦和学院高等学校,2000,66.25,155,-165,165,97.5,102.5,105,172.5,-187.5,190,165,105,190,460,SBD,Raw,Sub-Juniors
74,M,24,稲川 学,,パワーハルクジム,1980,73.45,155,160,-165,105,107.5,110,185,-195,-195,160,110,185,455,SBD,Raw,Open
74,M,2,新井 豪城,,春日部共栄高等学校,2000,71.9,140,150,-155,100,110,-115,180,190,-202.5,150,110,190,450,SBD,Raw,Sub-Juniors
74,M,25,八木 賢市,,ESQATIR,1987,73.35,150,-160,-160,95,100,-102.5,180,190,200,150,100,200,450,SBD,Raw,Open
74,M,17,大和 勇貴,,岡山大学,1997,72.4,150,160,-167.5,90,95,-100,180,185,190,160,95,190,445,SBD,Raw,Juniors
74,M,18,鳩山 雄基,,東北大学BB,1996,73,140,147.5,152.5,105,110,115,170,177.5,-182.5,152.5,115,177.5,445,SBD,Raw,Juniors
74,M,19,大賀 塁斗,,ちからこぶ,1999,69.3,170,182.5,-187.5,77.5,82.5,-87.5,-165,-165,165,182.5,82.5,165,430,SBD,Raw,Juniors
74,M,20,小池 優太,,新潟国際情報大学,1996,71.9,145,-155,-155,95,100,-105,170,-180,185,145,100,185,430,SBD,Raw,Juniors
74,M,3,阿部田 大貴,,岡崎城西高等学校,2000,70,135,145,150,80,85,-92.5,170,185,192.5,150,85,192.5,427.5,SBD,Raw,Sub-Juniors
74,M,21,小谷 崇文,,東京理科大学,1998,72.25,145,155,-160,85,-92.5,-92.5,170,-180,-192.5,155,85,170,410,SBD,Raw,Juniors
74,M,DQ,渡邉 俊哉,,ちからこぶ,1999,73.65,-175,-175,-175,90,100,-110,-190,200,-205,,100,200,,SBD,Raw,Juniors
74,M,NS,堤 慶介,,Yokohama Wonnder3,1983,,,,,,,,,,,,,,,SBD,Raw,Open
74,M,NS,山川 義博,,那覇ジム,1994,,,,,,,,,,,,,,,SBD,Raw,Open
74,M,NS,河南 文人,,京都学園大学,1998,,,,,,,,,,,,,,,SBD,Raw,Juniors
83,M,1,大島 逸生,Ikki Oshima,TEAM REDVOLTAGE,1992,82.65,245,255,-260,160,165,-167.5,255,265,-272.5,255,165,265,685,SBD,Raw,Open
83,M,2,デヴィン マクドナルド,Devin McDonald,ノーリミッツ,1986,81.25,215,225,232.5,162.5,172.5,180,240,247.5,257.5,232.5,180,257.5,670,SBD,Raw,Open
83,M,3,伊勢崎 勝史,,個人,1989,82.25,230,240,-245,160,170,-175,250,260,-267.5,240,170,260,670,SBD,Raw,Open
83,M,4,横田 正敏,Masatoshi Yokota,TXP,1989,81.9,225,235,242.5,150,157.5,-162.5,245,262.5,-270,242.5,157.5,262.5,662.5,SBD,Raw,Open
83,M,5,松尾 賢太朗,,筋トレクラブまっちゃん,1989,82.85,230,240,-256,150,-155,-155,240,250,262.5,240,150,262.5,652.5,SBD,Raw,Open
83,M,6,梶井 貴博,,兵庫個人選手会,1993,82.6,240,255.5,-256,145,-155,-155,235,250,-262.5,255.5,145,250,650.5,SBD,Raw,Open
83,M,7,神野 亮司,,MBC POWER,1981,82.85,220,232.5,-240,145,150,152.5,235,255,-267.5,232.5,152.5,255,640,SBD,Raw,Open
83,M,8,永井 肇,,西東京パワー倶楽部,1984,82.9,230,-242.5,-242.5,140,142.5,-145,245,260,265,230,142.5,265,637.5,SBD,Raw,Open
83,M,1,宇津木 啓,Hiroshi Utsugi,東洋大学,1996,82.5,220,230,235,150,157.5,160,220,230,235,235,160,235,630,SBD,Raw,Juniors
83,M,9,宇津木 啓,Hiroshi Utsugi,東洋大学,1996,82.5,220,230,235,150,157.5,160,220,230,235,235,160,235,630,SBD,Raw,Open
83,M,10,三輪 景吾,,東名アスレチック,1981,82.5,200,210,-220,177.5,-182.5,-182.5,230,240,-247.5,210,177.5,240,627.5,SBD,Raw,Open
83,M,11,鈴木 佑輔,Yusuke Suzuki,B・A・D,1984,75.65,200,210,220,190,202.5,-210.5,180,200,-215,220,202.5,200,622.5,SBD,Raw,Open
83,M,2,岡野 太郎,,東京農大,1997,82.8,202.5,212.5,-217.5,130,-140,140,250,260,-265,212.5,140,260,612.5,SBD,Raw,Juniors
83,M,12,大城 王寛,,TEAM GUTEI,1987,82.2,210,-225,-225,145,150,-155,240,250,-255,210,150,250,610,SBD,Raw,Open
83,M,3,齋藤 龍,,ストロングライン,1998,83,200,220,230,125,140,-145,230,240,-250,230,140,240,610,SBD,Raw,Juniors
83,M,13,金城 盛春,,個人,1969,82.55,190,200,,140,150,155,-250,250,-260,200,155,250,605,SBD,Raw,Open
83,M,14,川口 充,,京都P/Lクラブ,1970,82,205,212.5,-215,-145,145,152.5,220,230,-235,212.5,152.5,230,595,SBD,Raw,Open
83,M,15,持田 俊彦,,ストロングライン,1983,82.55,190,210,-215,135,-145,-145,250,-260,-260,210,135,250,595,SBD,Raw,Open
83,M,4,大澤 嵩樹,,東北大学BB,1997,82.95,210,220,227.5,135,142.5,-145,210,220,-225,227.5,142.5,220,590,SBD,Raw,Juniors
83,M,1,三橋 凱,,JUNGLE GYM,2000,81.7,185,200,210,120,130,-135,220,232.5,242.5,210,130,242.5,582.5,SBD,Raw,Sub-Juniors
83,M,16,田村 僚馬,,個人,1984,82.65,-180,182.5,187.5,135,137.5,140,245,250,-252.5,187.5,140,250,577.5,SBD,Raw,Open
83,M,5,石田 典大,,東京理科大学,1997,82.6,235,-245.5,-245.5,127.5,-132.5,-132.5,190,210,-230,235,127.5,210,572.5,SBD,Raw,Juniors
83,M,6,内藤 潤,,新日鐵住金君津,1996,82.55,185,195,-200,132.5,137.5,-140,215,225,-235,195,137.5,225,557.5,SBD,Raw,Juniors
83,M,17,奥谷 仁,,BLACK SHIP,1994,82.6,190,-200,200,115,122.5,-125,220,235,-250,200,122.5,235,557.5,SBD,Raw,Open
83,M,18,門馬 功祐,,シロクマパワージム,1992,82.85,190,-200,-200,140,150,-155,-200,200,-220,190,150,200,540,SBD,Raw,Open
83,M,19,村上 貴信,,たいそうべやスポーツ,1989,81.55,180,190,202.5,140,145,-147.5,180,-190,-190,202.5,145,180,527.5,SBD,Raw,Open
83,M,2,富田 慎之介,,浦和学院高等学校,2001,82.5,190,-200,-200,135,-140.5,140.5,195,-202.5,-202.5,190,140.5,195,525.5,SBD,Raw,Sub-Juniors
83,M,20,嶋田 友則,,ESQATIR,1979,81.05,165,175,180,125,132.5,-137.5,205,-212.5,212.5,180,132.5,212.5,525,SBD,Raw,Open
83,M,7,八束 光司,,岡山大学,1996,83,180,190,200,100,105,-107.5,220,-230,-230,200,105,220,525,SBD,Raw,Juniors
83,M,21,原田 勢司,,個人,1961,80.45,170,180,185,110,115,-120,200,210,220,185,115,220,520,SBD,Raw,Open
83,M,22,大谷 朋男,,ノーリミッツ,1961,82.75,180,185,-190,120,125,127.5,190,197.5,205,185,127.5,205,517.5,SBD,Raw,Open
83,M,8,神里 友紀,,スポーツジム平良,1995,81.1,190,200,-207.5,105,-112.5,112.5,180,192.5,200,200,112.5,200,512.5,SBD,Raw,Juniors
83,M,9,四分一 歩,,東北大学BB,1997,80.8,170,180,-182.5,105,-110,110,210,-220,-220,180,110,210,500,SBD,Raw,Juniors
83,M,10,田中 眞,,京都学園大学,1998,82.35,150,160,-165,120,135,-140,160,195,-205,160,135,195,490,SBD,Raw,Juniors
83,M,11,臼井 将一郎,,岡山大学,1998,82.35,170,190,195,100,105,-110,170,190,-200,195,105,190,490,SBD,Raw,Juniors
83,M,12,米山 隆人,,青山学院大学,1998,82.3,165,-175,175,85,95,-100,190,200,-205,175,95,200,470,SBD,Raw,Juniors
83,M,13,齋藤 昌弥,,東北大学BB,1998,81.8,155,-160,160,95,100,-105,-185,185,-190,160,100,185,445,SBD,Raw,Juniors
83,M,23,坂野 晃太,,個人,1995,82.65,160,-175,,115,-125,-125,170,,,160,115,170,445,SBD,Raw,Open
83,M,3,喜屋武 大洋,,名護ジム,2000,81.15,-140,-155,155,85,95,-105,180,-200,-200,155,95,180,430,SBD,Raw,Sub-Juniors
83,M,DQ,渡邉 透,,個人,1990,82.4,180,-190,-190,130,135,-140,-210,-210,-210,180,135,,,SBD,Raw,Open
83,M,DQ,藤枝 幸司,,愛知警察バーベル部,1982,82.7,190,-195,-195,-145,-145,-145,-240,,,190,,,,SBD,Raw,Open
83,M,NS,仲田 廣人,,パワーフィットネス,1994,,,,,,,,,,,,,,,SBD,Raw,Open
83,M,NS,瀬藤 宗仁,,個人,1991,,,,,,,,,,,,,,,SBD,Raw,Open
83,M,NS,本庄 孝,,京都学園大学,1996,,,,,,,,,,,,,,,SBD,Raw,Juniors
93,M,1,宇佐美 清孝,Kiyotaka Usami,MBC POWER,1970,91.75,227.5,240,245,175,180,-185,270,285,290,245,180,290,715,SBD,Raw,Open
93,M,2,落合 広樹,Hiroki Ochai,KING BULL,1989,92.25,230,242.5,250,162.5,175,182.5,255,270,282.5,250,182.5,282.5,715,SBD,Raw,Open
93,M,1,古川 潤,Jun Furukawa,京都学園大学,1998,91.8,260,272.5,280,140,145,147.5,265,280,-290,280,147.5,280,707.5,SBD,Raw,Juniors
93,M,3,古川 潤,Jun Furukawa,京都学園大学,1998,91.8,260,272.5,280,140,145,147.5,265,280,-290,280,147.5,280,707.5,SBD,Raw,Open
93,M,4,風張 透,,ノーリミッツ,1988,92.7,240,250,255,185,195,-197.5,230,240,-245,255,195,240,690,SBD,Raw,Open
93,M,5,久保 匡平,Kyohei Kubo,パワーハウス,1987,92.15,270,277.5,-280,150,160,165,240,-255,-260,277.5,165,240,682.5,SBD,Raw,Open
93,M,6,古賀 友太郎,,TXP,1990,89.95,240,255,-262.5,137.5,145,-147.5,255,275,-290,255,145,275,675,SBD,Raw,Open
93,M,7,池田 翔一,,TEAM GUTEI,1984,92.45,-240,240,-245,165,-175,-175,-250,250,260,240,165,260,665,SBD,Raw,Open
93,M,8,中島 良介,,個人,1989,86.4,220,-230,-230,160,165,-170,270,-275,-280,220,165,270,655,SBD,Raw,Open
93,M,2,伊藤 雄哲,Yutetsu Ito,個人,1995,88.45,210,220,230,140,145,-150,260,280,-300.5,230,145,280,655,SBD,Raw,Juniors
93,M,9,佐野 雅史,,高岡TC,1985,91.7,215,-230,230,135,145,-150,280,-301,-301,230,145,280,655,SBD,Raw,Open
93,M,10,栗原 弘教,,個人,1985,92.85,225,240,-250,135,145,-150,230,240,-255,240,145,240,625,SBD,Raw,Open
93,M,11,片桐 圭一,,個人,1982,90.6,210,220,230,-130,130,140,230,240,-250,230,140,240,610,SBD,Raw,Open
93,M,12,清水 隼人,,国際塾,1989,91.6,210,215,-222.5,160,-165,-165,230,235,-240,215,160,235,610,SBD,Raw,Open
93,M,13,村山 康平,,TXP,1992,89.7,215,230,-240,120,130,135,220,230,-235,230,135,230,595,SBD,Raw,Open
93,M,14,宮 元気,,個人,1994,91.45,205,-215,-217.5,135,140,145,220,230,240,205,145,240,590,SBD,Raw,Open
93,M,3,山尾 一輝,,KsGYM,1995,92.55,185,195,200,120,125,130,200,212.5,232.5,200,130,232.5,562.5,SBD,Raw,Juniors
93,M,4,鳥屋 直弘,,東北大学BB,1995,92.75,195,205,-210,135,-145,-145,-220,-220,220,205,135,220,560,SBD,Raw,Juniors
93,M,15,金田 一人,,ノーリミッツ,1969,91,190,205,210,110,115,-120,215,230,-235,210,115,230,555,SBD,Raw,Open
93,M,5,榊原 蓮,,京都学園大学,1998,91.6,180,200,212.5,110,117.5,120,180,200,-220,212.5,120,200,532.5,SBD,Raw,Juniors
93,M,16,松村 和彦,,筋トレ怪力塾,1972,92.7,180,-195,-195,125,130,132.5,190,205,220,180,132.5,220,532.5,SBD,Raw,Open
93,M,6,鈴木 駿也,,ESQUATIA,1995,92.4,180,190,200,-125,125,-135,190,-205,205,200,125,205,530,SBD,Raw,Juniors
93,M,17,大岸 英樹,,ノーリミッツ,1978,92.2,170,-180,180,120,-125,125,210,220,-230,180,125,220,525,SBD,Raw,Open
93,M,1,鈴木 聖也,,浦和学院高等学校,2000,84.15,165,172.5,180,110,117.5,-125,205,212.5,222.5,180,117.5,222.5,520,SBD,Raw,Sub-Juniors
93,M,18,高田 翔士,,ちからこぶ,1991,89.4,190,-200,-200,105,115,-117.5,-200,200,215,190,115,215,520,SBD,Raw,Open
93,M,2,川上 壱幸,,マッスルプロダクション石川,2001,92.8,-195,195,-206,110,117.5,-125,185,200,207.5,195,117.5,207.5,520,SBD,Raw,Sub-Juniors
93,M,3,念代 朋哉,,東奥義塾高等学校,2000,89.7,-165,-165,165,-65,75,82.5,195,207.5,215,165,82.5,215,462.5,SBD,Raw,Sub-Juniors
93,M,4,小柳 佑椰,,岡崎城西高等学校,2000,91.2,145,-155,-155,90,95,100,175,,,145,100,175,420,SBD,Raw,Sub-Juniors
93,M,NS,信田 泰宏,Yasuhiro Shida,個人,1988,,,,,,,,,,,,,,,SBD,Raw,Open
93,M,NS,高木 啓樹,,ストロングライン,1981,,,,,,,,,,,,,,,SBD,Raw,Open
93,M,NS,阿藤 聡,,BLACK SHIP,1991,,,,,,,,,,,,,,,SBD,Raw,Open
105,M,1,武田 裕介,Yusuke Takeda,TXP,1985,104.45,285,305,320,200,210,220,270,290,-305.5,320,220,290,830,SBD,Raw,Open
105,M,1,田中 幸佑,,個人,1998,101.9,250,260,265,167.5,177.5,180,265,-275,,265,180,265,710,SBD,Raw,Juniors
105,M,2,山田 哲也,,個人,1989,103.6,242.5,255,265,150,160,162.5,240,255,260,265,162.5,260,687.5,SBD,Raw,Open
105,M,3,陣内 英聡,,フジモトジム,1975,104.7,240,255,-260,150,155,160,-250,250,260,255,160,260,675,SBD,Raw,Open
105,M,4,中根 孝弘,,個人,1971,103.4,220,235,-240,170,180,-185,230,250,-260,235,180,250,665,SBD,Raw,Open
105,M,5,長谷川 航世,,筋トレ怪力塾,1989,101.35,225,240,250,160,-170,-170,220,240,-250,250,160,240,650,SBD,Raw,Open
105,M,2,山田 友基,,BLACKSHIP,1995,103.4,200,210,222.5,130,140,-145,250,270,277.5,222.5,140,277.5,640,SBD,Raw,Juniors
105,M,3,伊藤 壮志,,北海学園大学,1995,103.75,200,210,215,175.5,180.5,185.5,200,220,237.5,215,185.5,237.5,638,SBD,Raw,Juniors
105,M,6,荒川 龍一,,個人,1994,100.65,215,235,245,135,145,150,200,220,240,245,150,240,635,SBD,Raw,Open
105,M,7,軍司 和貴,,個人,1994,103.7,225,240,247.5,140,147.5,-155,235,-255,-255,247.5,147.5,235,630,SBD,Raw,Open
105,M,8,越前 祐輔,,POWER BOX,1988,101.6,210,232.5,-242.5,140,150,152.5,210,230,-240,232.5,152.5,230,615,SBD,Raw,Open
105,M,9,渡邉 峻,,筋肉道場馬鹿力,1992,104.5,205,215,-220,145,155,162.5,205,215,225,215,162.5,225,602.5,SBD,Raw,Open
105,M,10,幸喜 輝明,,パワーハウス赤穂,1980,98.2,220,-230,230,145,-150,-150,210,225,-232.5,230,145,225,600,SBD,Raw,Open
105,M,4,橋本 隆盛,,岡山大学,1997,100,205,215,217.5,140,150,-157.5,205,-215,220,217.5,150,220,587.5,SBD,Raw,Juniors
105,M,1,福田 堯,,ちからこぶ,2000,93.7,215,227.5,-232.5,100,110,112.5,213,220,225,227.5,112.5,225,565,SBD,Raw,Sub-Juniors
105,M,5,清水 佑弥,,BLACKSHIP,1995,104.7,200,-215,215,130,-140,140,190,200,-230,215,140,200,555,SBD,Raw,Juniors
105,M,NS,又吉 宏樹,,GINOWAN GYM,1975,,,,,,,,,,,,,,,SBD,Raw,Open
120,M,1,阪田 達也,,兵庫個人選手会,1976,117.75,262.5,-275,275,170,177.5,182.5,262.5,285,301,275,182.5,301,758.5,SBD,Raw,Open
120,M,2,仲田 直樹,,ノーリミッツ,1982,119.2,260,270,280,185,200,-205,245,255,265,280,200,265,745,SBD,Raw,Open
120,M,1,山川 太希,Taiki Yamakawa,スポーツジム平良,1996,118.25,255,270,-285.5,155,-165,-165,270,290,300.5,270,155,300.5,725.5,SBD,Raw,Juniors
120,M,3,田邉 秀将,,個人,1989,119.15,245,260,270,160,170,175,235,250,260,270,175,260,705,SBD,Raw,Open
120,M,2,大原 友海,,関東学連,1996,115.75,240,260,270,150,160,165,235,255,-280,270,165,255,690,SBD,Raw,Juniors
120,M,3,萱沼 拓也,,東洋大学,1997,110.6,210,225,-240,140,-150,150,215,230,245,225,150,245,620,SBD,Raw,Juniors
120,M,4,中村 敏雄,,TXP,1970,111.1,200,225,-230,155,165,-172.5,200,210,-225,225,165,210,600,SBD,Raw,Open
120,M,5,越久田 匡利,,個人,1978,116.8,215,230,-242.5,110,115,120,205,220,-230,230,120,220,570,SBD,Raw,Open
120,M,NS,関口 和矢,,リアルスイング,1979,,,,,,,,,,,,,,,SBD,Raw,Open
120,M,NS,山崎 大介,,TXP,1981,,,,,,,,,,,,,,,SBD,Raw,Open
120+,M,1,木下 進人,Shinto Kinoshita,個人,1985,123.35,240,260,270,205,215,-222.5,210,230,242.5,270,215,242.5,727.5,SBD,Raw,Open
120+,M,1,齋藤 颯太,,ノーリミッツ,1995,127,240,252.5,260,-175,175,182.5,250,262.5,272.5,260,182.5,272.5,715,SBD,Raw,Juniors
120+,M,2,山本 貴之,,個人,1995,120.55,240,260,275,175,185,-192.5,230,-255,-267.5,275,185,230,690,SBD,Raw,Juniors
120+,M,2,齋藤 颯太,,ノーリミッツ,1995,127,240,252.5,260,-175,175,182.5,250,262.5,272.5,260,182.5,272.5,715,SBD,Raw,Open
120+,M,3,山本 貴之,,個人,1995,120.55,240,260,275,175,185,-192.5,230,-255,-267.5,275,185,230,690,SBD,Raw,Open
120+,M,4,武島 多加雄,,那覇ジム,1972,129.95,-240,245,260,180,185,190,190,210,225,260,190,225,675,SBD,Raw,Open
120+,M,5,大城 朝史,,那覇ジム,1983,129.95,235,245,250,150,160,-165,210,230,-240,250,160,230,640,SBD,Raw,Open
120+,M,6,田村 尚道,,MAT,1986,128.4,200,-215,-225,-180,185,-200,-210,220,-235,200,185,220,605,SBD,Raw,Open
120+,M,7,高橋 昌弘,,ESQATIR,1974,133.45,220,235,-245,125,130,-140,205,-220,-225,235,130,205,570,SBD,Raw,Open
