Place,Name,CyrillicName,BodyweightKg,WeightClassKg,BirthYear,Deadlift1Kg,Deadlift2Kg,Deadlift3Kg,Deadlift4Kg,Best3DeadliftKg,TotalKg,Event,Sex,Equipment
1,Marina Gorbachyova,Марина Горбачёва,51.9,52,1983,180,187.5,195,201,195,195,D,F,Single-ply
2,Ekaterina Kutuzova,Екатерина Кутузова,67.3,67.5,1984,130,135,140,,140,140,D,F,Single-ply
