Division,WeightClassKg,Place,Name,Team,BodyweightKg,Best3SquatKg,Best3BenchKg,Best3DeadliftKg,TotalKg,Equipment,Event,Sex
Boys,51.71,1,Tyce Johnson,Bullard,50.71,127.01,81.65,131.54,340.19,Single-ply,SBD,M
Boys,51.71,2,Richard Rodriguez,Whitehouse,50.8,113.4,72.57,129.27,315.25,Single-ply,SBD,M
Boys,51.71,3,Jacob Gray,Longview Pine Tree,51.62,106.59,49.9,117.93,274.42,Single-ply,SBD,M
Boys,51.71,4,Daniel Irvin,Longview Pine Tree,49.4,99.79,65.77,102.06,267.62,Single-ply,SBD,M
Boys,55.79,1,Landon Warren,Bullard,55.79,147.42,90.72,165.56,403.7,Single-ply,SBD,M
Boys,55.79,2,Grant White,Henderson,54.07,92.99,56.7,115.67,265.35,Single-ply,SBD,M
Boys,59.87,1,Braiden Miller,Whitehouse,59.33,129.27,74.84,120.2,324.32,Single-ply,SBD,M
Boys,59.87,2,Tyson Pierce,Henderson,57.52,120.2,65.77,124.74,310.71,Single-ply,SBD,M
Boys,59.87,3,Caden Pickard,Longview Pine Tree,56.47,90.72,65.77,120.2,276.69,Single-ply,SBD,M
Boys,67.13,1,Damion Brown,Bullard,67.04,181.44,124.74,190.51,496.68,Single-ply,SBD,M
Boys,67.13,2,Orran Simmons,Longview Pine Tree,66.18,183.7,117.93,181.44,483.08,Single-ply,SBD,M
Boys,67.13,3,Kevin Chavez,New London West Rusk,60.33,149.69,95.25,181.44,426.38,Single-ply,SBD,M
Boys,67.13,4,Julian Fierros,Longview Pine Tree,65.82,161.03,90.72,161.03,412.77,Single-ply,SBD,M
Boys,67.13,5,Dakota Simmons,Bullard,65.82,142.88,97.52,156.49,396.89,Single-ply,SBD,M
Boys,67.13,6,John Engle,Bullard,66.5,142.88,97.52,149.69,390.09,Single-ply,SBD,M
Boys,67.13,7,Aaron Blake,Whitehouse,60.83,142.88,79.38,149.69,371.95,Single-ply,SBD,M
Boys,67.13,8,John Cunyus,Henderson,66.95,115.67,79.38,165.56,360.61,Single-ply,SBD,M
Boys,67.13,9,Brian Vaca,Longview Spring Hill,60.55,115.67,74.84,142.88,333.39,Single-ply,SBD,M
Boys,67.13,10,Giovanni Morales,Henderson,60.42,115.67,74.84,131.54,322.05,Single-ply,SBD,M
Boys,74.84,1,Chris Galvan #1,Jacksonville,74.21,204.12,124.74,231.33,560.19,Single-ply,SBD,M
Boys,74.84,2,Josh Farrar,Whitehouse,74.75,156.49,106.59,174.63,437.72,Single-ply,SBD,M
Boys,74.84,3,James Greenalch,Henderson,69.67,151.95,97.52,158.76,408.23,Single-ply,SBD,M
Boys,74.84,4,Caleb James,Longview Pine Tree,73.48,129.27,79.38,181.44,390.09,Single-ply,SBD,M
Boys,74.84,5,Matthew Shankles,Longview Spring Hill,70.67,149.69,70.31,154.22,374.21,Single-ply,SBD,M
Boys,74.84,6,Gerardo Ramirez,Jacksonville,67.45,138.35,81.65,151.95,371.95,Single-ply,SBD,M
Boys,74.84,DQ,Jacob Waddill,Bullard,74.07,,,,,Single-ply,SBD,M
Boys,82.1,1,Jansen Mattingly,Bullard,81.19,240.4,138.35,235.87,614.62,Single-ply,SBD,M
Boys,82.1,2,Micah Beale,Jacksonville,80.78,229.06,129.27,215.46,573.79,Single-ply,SBD,M
Boys,82.1,3,Reece Ricketts,Bullard,80.1,201.85,136.08,197.31,535.24,Single-ply,SBD,M
Boys,82.1,4,Brayden Bulman,Whitehouse,78.93,199.58,113.4,199.58,512.56,Single-ply,SBD,M
Boys,82.1,5,Oscar Gallegos,Longview Spring Hill,81.28,192.78,106.59,185.97,485.34,Single-ply,SBD,M
Boys,82.1,6,Deaundre Heath,Longview Pine Tree,80.83,192.78,102.06,176.9,471.74,Single-ply,SBD,M
Boys,82.1,7,Michael Marrs,Longview Spring Hill,81.47,158.76,111.13,195.04,464.93,Single-ply,SBD,M
Boys,82.1,8,Cole Harkins,Henderson,81.92,165.56,92.99,188.24,446.79,Single-ply,SBD,M
Boys,82.1,9,Maurico Herrera,Van,77.93,167.83,102.06,158.76,428.64,Single-ply,SBD,M
Boys,82.1,10,Adrian Cortez,Van,81.83,163.29,83.91,165.56,412.77,Single-ply,SBD,M
Boys,82.1,11,Brenden Collins,Henderson,80.38,142.88,74.84,174.63,392.36,Single-ply,SBD,M
Boys,82.1,12,Colby Kirk,Van,76.84,124.74,79.38,129.27,333.39,Single-ply,SBD,M
Boys,82.1,13,Zach Cooke,Henderson,81.33,233.6,,,233.6,Single-ply,S,M
Boys,82.1,DQ,Chaez Spurlock,Whitehouse,75.48,,,,,Single-ply,S,M
Boys,89.81,1,Vaughan Bufkin,Longview Spring Hill,87.59,226.8,136.08,226.8,589.67,Single-ply,SBD,M
Boys,89.81,2,Oscar Arellano,Jacksonville,83.64,204.12,120.2,208.65,532.97,Single-ply,SBD,M
Boys,89.81,3,Cameron Castles,Henderson,84.46,208.65,113.4,192.78,514.83,Single-ply,SBD,M
Boys,89.81,4,Diego Molina,New London West Rusk,86.05,190.51,108.86,199.58,498.95,Single-ply,SBD,M
Boys,89.81,5,Nathaniel Picketpin,Whitehouse,88.31,147.42,83.91,176.9,408.23,Single-ply,SBD,M
Boys,89.81,6,Brandon Krenek,Longview Spring Hill,88.72,170.1,83.91,154.22,408.23,Single-ply,SBD,M
Boys,89.81,7,Andrew Thomas,Henderson,87.91,129.27,,,129.27,Single-ply,S,M
Boys,99.79,1,Jay'Quan Barnett,Henderson,92.4,219.99,120.2,197.31,537.51,Single-ply,SBD,M
Boys,99.79,2,Seth Akin,Longview Pine Tree,93.67,192.78,104.33,226.8,523.9,Single-ply,SBD,M
Boys,99.79,3,Michael Raymond,New London West Rusk,97.48,185.97,97.52,210.92,494.42,Single-ply,SBD,M
Boys,99.79,4,Andy Arroniz,Whitehouse,97.84,192.78,127.01,174.63,494.42,Single-ply,SBD,M
Boys,99.79,5,Jeremy Singleton,Jacksonville,96.16,183.7,108.86,181.44,474,Single-ply,SBD,M
Boys,99.79,6,Cameron Bridges,Bullard,95.21,172.37,115.67,167.83,455.86,Single-ply,SBD,M
Boys,109.77,1,Clayton Conrad,Henderson,103.33,215.46,120.2,215.46,551.11,Single-ply,SBD,M
Boys,109.77,2,Alexander Bearden,Longview Pine Tree,101.97,208.65,124.74,190.51,523.9,Single-ply,SBD,M
Boys,109.77,3,Johnathan Housley,Whitehouse,106.91,183.7,124.74,201.85,510.29,Single-ply,SBD,M
Boys,109.77,4,Jacob Kimbrough,Longview Spring Hill,106.32,183.7,97.52,190.51,471.74,Single-ply,SBD,M
Boys,109.77,5,Marco Nunez,Jacksonville,108.86,181.44,102.06,188.24,471.74,Single-ply,SBD,M
Boys,109.77,6,Taylor Swinney,Jacksonville,102.1,156.49,113.4,188.24,458.13,Single-ply,SBD,M
Boys,109.77,7,Lance Deal,Whitehouse,104.46,161.03,104.33,181.44,446.79,Single-ply,SBD,M
Boys,109.77,8,Blake Morse,Bullard,102.74,176.9,104.33,154.22,435.45,Single-ply,SBD,M
Boys,109.77,9,James Burns,Jacksonville,105.23,147.42,88.45,147.42,383.29,Single-ply,SBD,M
Boys,124.74,1,Caleb York,Van,116.17,260.82,165.56,226.8,653.17,Single-ply,SBD,M
Boys,124.74,2,Keith Burkes,Longview Pine Tree,122.79,249.48,140.61,231.33,621.42,Single-ply,SBD,M
Boys,124.74,3,Carson Manasse,Longview Spring Hill,114.99,233.6,129.27,233.6,596.47,Single-ply,SBD,M
Boys,124.74,4,Roberto Miranda,Henderson,113.26,215.46,122.47,204.12,542.04,Single-ply,SBD,M
Boys,124.74,5,Kejuan Fite,Van,117.21,185.97,115.67,185.97,487.61,Single-ply,SBD,M
Boys,124.74,6,Carson Wilborn,Bullard,110.59,195.04,92.99,183.7,471.74,Single-ply,SBD,M
Boys,124.74,7,Carson McCoy,Van,119.84,172.37,120.2,163.29,455.86,Single-ply,SBD,M
Boys,124.74,8,Cade Blount,Longview Spring Hill,119.16,226.8,,,226.8,Single-ply,S,M
Boys,124.74+,1,John Campbell,Bullard,140.16,303.91,163.29,213.19,680.39,Single-ply,SBD,M
Boys,124.74+,2,Jacob Nichols,Henderson,157.4,181.44,117.93,172.37,471.74,Single-ply,SBD,M
Boys,124.74+,3,Tanner Hathaway,Bullard,126.37,190.51,83.91,151.95,426.38,Single-ply,SBD,M
Boys,,NS,Juan Jaramillo,Jacksonville,,,,,,Single-ply,SBD,M
Boys,,NS,Jordan Hicks,Jacksonville,,,,,,Single-ply,SBD,M
Boys,,NS,Angel Perez,Jacksonville,,,,,,Single-ply,SBD,M
Boys,,NS,Tanner Cornell,Longview Spring Hill,,,,,,Single-ply,SBD,M
Boys,,NS,Ty Ward,Whitehouse,,,,,,Single-ply,SBD,M
Boys,,NS,Richard Matkin,Longview Spring Hill,,,,,,Single-ply,SBD,M
