Place,Name,CyrillicName,WeightClassKg,Sex,Event,Equipment,Tested,Division,Age,BirthDate,BodyweightKg,Squat1Kg,Squat2Kg,Squat3Kg,Best3SquatKg,Squat4Kg,Bench1Kg,Bench2Kg,Bench3Kg,Best3BenchKg,Bench4Kg,Deadlift1Kg,Deadlift2Kg,Deadlift3Kg,Best3DeadliftKg,Deadlift4Kg,TotalKg
1,Vitaliy Kuvshinov,Виталий Кувшинов,75,M,BD,Raw,No,Pro Open,31,1988-08-05,70.45,,,,,,-120,120,-125,120,,130,142.5,150,150,,270
1,Stanislav Bagautdinov,Станислав Багаутдинов,110,M,S,Single-ply,No,Pro Open,34,1985-06-01,107.6,-210,210,230,230,,,,,,,,,,,,230
1,Andrey Volokho,Андрей Волохо,100,M,S,Wraps,No,Pro Masters 40-44,44,1975-07-06,97.5,160,170,,170,,,,,,,,,,,,170
1,Aleksandr Shevchenko,Александр Шевченко,100,M,S,Wraps,Yes,Amateur Open,30,1989-01-30,90.85,200,210,215,215,,,,,,,,,,,,215
1,Mikhail Litvinov,Михаил Литвинов,110,M,S,Wraps,Yes,Amateur Open,36,1983-04-12,106.6,180,190,200,200,,,,,,,,,,,,200
1,Galina Nesterova,Галина Нестерова,52,F,D,Raw,Yes,Amateur Teen 18-19,19,1999-12-06,51.4,,,,,,,,,,,60,70,72.5,72.5,,72.5
1,Vladislav Ilyutin,Владислав Ильютин,75,M,D,Raw,Yes,Amateur Teen 18-19,19,1999-12-16,74.4,,,,,,,,,,,190,205,-215,205,,205
1,Vitaliy Kuvshinov,Виталий Кувшинов,75,M,D,Raw,Yes,Amateur Open,31,1988-08-05,70.45,,,,,,,,,,,130,142.5,150,150,,150
1,Dmitriy Gaydo,Дмитрий Гайдо,82.5,M,D,Raw,Yes,Amateur Juniors 20-23,21,1998-08-31,79.4,,,,,,,,,,,197.5,207.5,217.5,217.5,,217.5
1,Vladimir Lukyanchikov,Владимир Лукьянчиков,90,M,D,Raw,Yes,Amateur Masters 55-59,59,1959-12-23,86.6,,,,,,,,,,,160,170,,170,,170
1,Artem Baranovskiy,Артем Барановский,100,M,D,Raw,Yes,Amateur Juniors 20-23,23,1995-12-31,99.15,,,,,,,,,,,280,-290,,280,,280
1,Denis Mazepa,Денис Мазепа,100,M,D,Raw,Yes,Amateur Open,37,1981-12-18,97.75,,,,,,,,,,,200,210,-220,210,,210
1,Mikhail Litvinov,Михаил Литвинов,110,M,D,Raw,Yes,Amateur Open,36,1983-04-12,106.6,,,,,,,,,,,200,220,-235,220,,220
1,Stanislav Prokofev,Станислав Прокофьев,90,M,D,Single-ply,Yes,Amateur Open,30,1989-02-17,89.85,,,,,,,,,,,230,-247.5,,230,,230
1,Shakhboz Kosimov,Шахбоз Косимов,100,M,B,Multi-ply,Yes,Amateur Open,27,1992-05-11,94.1,,,,,,-262.5,262.5,270,270,,,,,,,270
1,Sergey Belokhonov,Сергей Белохонов,90,M,B,Single-ply,No,Pro Open,28,1991-05-01,87.1,,,,,,-225,225,230,230,,,,,,,230
1,Dmitriy Kunts,Дмитрий Кунц,90,M,B,Raw,No,Pro Open,25,1994-03-11,88.3,,,,,,200,210,,210,,,,,,,210
2,Ivan Zayakin,Иван Заякин,90,M,B,Raw,No,Pro Open,36,1983-05-24,87.9,,,,,,175,185,190,190,,,,,,,190
1,Dmitriy Yanevich,Дмитрий Яневич,90,M,B,Raw,No,Pro Masters 45-49,45,1974-03-25,89.25,,,,,,180,190,200,200,,,,,,,200
1,Aleksandr Shcherbakov,Александр Щербаков,100,M,B,Raw,No,Pro Open,35,1984-01-04,92.5,,,,,,-165,167.5,175,175,,,,,,,175
2,Vladimir Sokolov,Владимир Соколов,100,M,B,Raw,No,Pro Open,25,1994-10-29,96.85,,,,,,160,170,175,175,,,,,,,175
1,Viktor Matsur,Виктор Мацур,110,M,B,Raw,No,Pro Masters 50-54,54,1965-06-03,110,,,,,,170,175,-180,175,,,,,,,175
1,Andrey Eliseev,Андрей Елисеев,125,M,B,Raw,No,Pro Masters 40-44,43,1976-09-28,110.3,,,,,,170,180,185,185,,,,,,,185
1,Diana Kvitchenko,Диана Квитченко,48,F,B,Raw,Yes,Amateur Open,36,1983-08-22,47.8,,,,,,45,50,-55,50,,,,,,,50
1,Irina Orlova,Ирина Орлова,56,F,B,Raw,Yes,Amateur Masters 45-49,45,1974-07-30,52.45,,,,,,57.5,60,62.5,62.5,,,,,,,62.5
2,Natalya Lebedeva,Наталья Лебедева,56,F,B,Raw,Yes,Amateur Masters 45-49,45,1974-03-01,52.7,,,,,,35,40,-45,40,,,,,,,40
1,Galina Nesterova,Галина Нестерова,52,F,B,Raw,Yes,Amateur Teen 18-19,19,1999-12-06,51.4,,,,,,30,-35,-35,30,,,,,,,30
1,Vladimir Platonov,Владимир Платонов,60,M,B,Raw,Yes,Amateur Open,35,1984-09-12,59.55,,,,,,90,-100,,90,,,,,,,90
1,Ivan Luchenkov,Иван Лученков,67.5,M,B,Raw,Yes,Amateur Open,28,1991-03-30,67.5,,,,,,140,145,-150,145,,,,,,,145
DQ,Igor Filimonov,Игорь Филимонов,67.5,M,B,Raw,Yes,Amateur Masters 40-44,40,1979-09-18,66.95,,,,,,-85,-85,,,,,,,,,
1,Andrey Zubarev,Андрей Зубарев,75,M,B,Raw,Yes,Amateur Open,34,1985-01-06,73.2,,,,,,140,145,-150,145,,,,,,,145
2,Vitaliy Kuvshinov,Виталий Кувшинов,75,M,B,Raw,Yes,Amateur Open,31,1988-08-05,70.45,,,,,,-120,120,-125,120,,,,,,,120
DQ,Stanislav Shulyak,Станислав Шуляк,82.5,M,B,Raw,Yes,Amateur Juniors 20-23,22,1997-05-22,79.5,,,,,,-120,-130,-130,,,,,,,,
1,Dmitriy Sherman,Дмитрий Шерман,82.5,M,B,Raw,Yes,Amateur Masters 55-59,55,1964-05-28,79,,,,,,130,140,-145,140,,,,,,,140
1,Aleksey Kozlov,Алексей Козлов,90,M,B,Raw,Yes,Amateur Open,37,1982-05-18,88.75,,,,,,180,190,195,195,,,,,,,195
2,Igor Selchenko,Игорь Сельченко,90,M,B,Raw,Yes,Amateur Open,45,1974-07-01,86.95,,,,,,150,-160,160,160,,,,,,,160
1,Igor Selchenko,Игорь Сельченко,90,M,B,Raw,Yes,Amateur Masters 45-49,45,1974-07-01,86.95,,,,,,150,-160,160,160,,,,,,,160
2,Sergey Galkovskiy,Сергей Галковский,90,M,B,Raw,Yes,Amateur Masters 45-49,47,1972-09-24,89.5,,,,,,140,150,,150,,,,,,,150
1,Aleksey Sidorenko,Алексей Сидоренко,100,M,B,Raw,Yes,Amateur Juniors 20-23,20,1998-12-18,95.8,,,,,,145,155,162.5,162.5,,,,,,,162.5
1,Aleksandr Samusev,Александр Самусев,100,M,B,Raw,Yes,Amateur Open,33,1986-07-16,99.6,,,,,,162.5,170,,170,,,,,,,170
2,Filipp Kotsylo,Филипп Коцыло,100,M,B,Raw,Yes,Amateur Open,26,1993-05-10,92.95,,,,,,162.5,-167.5,167.5,167.5,,,,,,,167.5
3,Sergey Ermoshin,Сергей Ермошин,100,M,B,Raw,Yes,Amateur Open,33,1986-09-14,97.55,,,,,,155,162.5,167.5,167.5,,,,,,,167.5
4,Aleksandr Shevchenko,Александр Шевченко,100,M,B,Raw,Yes,Amateur Open,30,1989-01-30,90.85,,,,,,-130,130,,130,,,,,,,130
1,Aleksandr Losyakov,Александр Лосяков,100,M,B,Raw,Yes,Amateur Masters 50-54,54,1965-09-27,99.7,,,,,,140,150,,150,,,,,,,150
1,Artem Poluzhanov,Артем Полужанов,110,M,B,Raw,Yes,Amateur Open,26,1993-09-25,100.5,,,,,,195,200,205,205,,,,,,,205
2,Igor Buynevich,Игорь Буйневич,110,M,B,Raw,Yes,Amateur Open,29,1990-01-05,106.4,,,,,,-180,180,195,195,,,,,,,195
3,Sergey Molchanov,Сергей Молчанов,110,M,B,Raw,Yes,Amateur Open,46,1973-03-15,107.8,,,,,,170,180,-185,180,,,,,,,180
4,Anton Yurasov,Антон Юрасов,110,M,B,Raw,Yes,Amateur Open,32,1986-12-12,106,,,,,,170,-175,-175,170,,,,,,,170
5,Dmitriy Durnov,Дмитрий Дурнов,110,M,B,Raw,Yes,Amateur Open,34,1985-09-01,101.6,,,,,,150,160,-170,160,,,,,,,160
1,Aleksandr Dorofeev,Александр Дорофеев,125,M,B,Raw,Yes,Amateur Open,29,1990-02-26,116.3,,,,,,180,190,200,200,,,,,,,200
2,Aleksey Zhegulskiy,Алексей Жегульский,125,M,B,Raw,Yes,Amateur Open,35,1984-02-27,120.3,,,,,,170,180,-185,180,,,,,,,180
3,Aleksandr Vasiltsov,Александр Васильцов,125,M,B,Raw,Yes,Amateur Open,36,1983-01-23,122,,,,,,160,175,-182.5,175,,,,,,,175
4,Ivan Peskov,Иван Песков,125,M,B,Raw,Yes,Amateur Open,26,1993-08-16,118.6,,,,,,150,-155,155,155,,,,,,,155
1,Igor Chkalov,Игорь Чкалов,75,M,B,Raw,No,Disabled Open,27,1992-09-08,72.9,,,,,,125,-130,-130,125,,,,,,,125
1,Galina Solovyanova,Галина Соловьянова,75,M,SBD,Wraps,No,Pro Masters 40-44,44,1975-08-14,74.1,80,90,100,100,,65,72.5,77.5,77.5,,100,112.5,120,120,,297.5
1,Roman Danchenkov,Роман Данченков,125,M,SBD,Wraps,No,Pro Open,34,1985-10-08,113.7,185,200,210,210,,160,167.5,-172.5,167.5,,220,230,245,245,,622.5
1,Darya Kalinina,Дарья Калинина,56,F,SBD,Wraps,Yes,Amateur Open,27,1992-05-29,55.75,70,-80,-80,70,,35,40,-42.5,40,,85,95,100,100,,210
1,Danila Rubtsov,Данила Рубцов,60,F,SBD,Wraps,Yes,Amateur Teen 16-17,16,2003-09-14,57.9,90,110,-120,110,,-75,80,90,90,,100,125,145,145,,345
1,Maksim Fedosenko,Максим Федосенко,82.5,M,SBD,Wraps,Yes,Amateur Teen 14-15,15,2004-02-17,76.9,130,140,150,150,,80,90,100,100,,-140,140,165,165,,415
2,Kirill Trubyankov,Кирилл Трубянков,82.5,M,SBD,Wraps,Yes,Amateur Teen 14-15,14,2005-03-17,80.75,90,100,102.5,102.5,,60,65,-80,65,,120,140,150,150,,317.5
3,Kirill Putyato,Кирилл Путято,82.5,M,SBD,Wraps,Yes,Amateur Teen 14-15,14,2005-08-06,78,90,100,105,105,,65,70,75,75,,100,115,130,130,,310
1,Mikhail Litvinov,Михаил Литвинов,110,M,SBD,Wraps,Yes,Amateur Open,36,1983-04-12,106.6,180,190,200,200,,130,140,145,145,,200,220,-235,220,,565
1,Stanislav Bagautdinov,Станислав Багаутдинов,110,M,SBD,Single-ply,No,Pro Open,34,1985-06-01,107.6,-210,210,230,230,,170,185,-187.5,185,,210,-230,-230,210,,625
1,Aleksey Kazantsev,Алексей Казанцев,140+,M,SBD,Single-ply,No,Pro Open,44,1975-07-08,168.1,240,255,265,265,,120,130,137.5,137.5,,240,255,265,265,,667.5
